<?xml version="1.0" encoding="UTF-8" standalone="no"?>
<svg
   xmlns:dc="http://purl.org/dc/elements/1.1/"
   xmlns:cc="http://creativecommons.org/ns#"
   xmlns:rdf="http://www.w3.org/1999/02/22-rdf-syntax-ns#"
   xmlns:svg="http://www.w3.org/2000/svg"
   xmlns="http://www.w3.org/2000/svg"
   xmlns:xlink="http://www.w3.org/1999/xlink"
   xmlns:sodipodi="http://sodipodi.sourceforge.net/DTD/sodipodi-0.dtd"
   xmlns:inkscape="http://www.inkscape.org/namespaces/inkscape"
   width="210mm"
   height="297mm"
   viewBox="0 0 210 297"
   version="1.1"
   id="svg8"
   inkscape:version="1.0.2 (e86c870879, 2021-01-15)"
   sodipodi:docname="figure_exercise_permissions.svg"
   inkscape:export-filename="/home/caduffm/git/bash_lecture/Figures/figure_exercise_permissions.png"
   inkscape:export-xdpi="585.81"
   inkscape:export-ydpi="585.81">
  <defs
     id="defs2">
    <linearGradient
       inkscape:collect="always"
       id="linearGradient1039-6">
      <stop
         style="stop-color:#a0b3ff;stop-opacity:1;"
         offset="0"
         id="stop1035" />
      <stop
         style="stop-color:#dbb36a;stop-opacity:1"
         offset="1"
         id="stop1037" />
    </linearGradient>
    <linearGradient
       inkscape:collect="always"
       xlink:href="#linearGradient1039-6"
       id="linearGradient1041"
       x1="14.906061"
       y1="90.403424"
       x2="66.183167"
       y2="90.403424"
       gradientUnits="userSpaceOnUse" />
  </defs>
  <sodipodi:namedview
     id="base"
     pagecolor="#ffffff"
     bordercolor="#666666"
     borderopacity="1.0"
     inkscape:pageopacity="0.0"
     inkscape:pageshadow="2"
     inkscape:zoom="1.4"
     inkscape:cx="394.75478"
     inkscape:cy="415.83905"
     inkscape:document-units="mm"
     inkscape:current-layer="layer2"
     inkscape:document-rotation="0"
     showgrid="false"
     inkscape:window-width="1848"
     inkscape:window-height="1016"
     inkscape:window-x="0"
     inkscape:window-y="0"
     inkscape:window-maximized="1" />
  <metadata
     id="metadata5">
    <rdf:RDF>
      <cc:Work
         rdf:about="">
        <dc:format>image/svg+xml</dc:format>
        <dc:type
           rdf:resource="http://purl.org/dc/dcmitype/StillImage" />
        <dc:title></dc:title>
      </cc:Work>
    </rdf:RDF>
  </metadata>
  <g
     inkscape:groupmode="layer"
     id="layer2"
     inkscape:label="Layer 2">
    <rect
       style="fill:#ffffff;fill-opacity:1;stroke:none;stroke-width:0.365;stroke-linejoin:bevel;stroke-miterlimit:4;stroke-dasharray:none;stroke-opacity:1"
       id="rect1389"
       width="187.29828"
       height="29.015577"
       x="16.797794"
       y="91.72567" />
  </g>
  <g
     inkscape:label="Layer 1"
     inkscape:groupmode="layer"
     id="layer1">
    <g
       id="g1292"
       transform="translate(28.575012)">
      <g
         id="g1153"
         transform="matrix(0.73196195,0,0,0.73196195,3.9953914,31.458765)">
        <g
           id="g885">
          <rect
             style="fill:#ffffff;stroke:#000000;stroke-width:0.56149;stroke-linejoin:bevel;stroke-miterlimit:4;stroke-dasharray:none;stroke-opacity:1"
             id="rect851"
             width="50.594437"
             height="32.157459"
             x="15.186806"
             y="84.959808"
             ry="6.1635685"
             rx="5.0169516" />
          <rect
             style="fill:#a0b3ff;fill-opacity:1;stroke:#000000;stroke-width:0.499999;stroke-linejoin:bevel;stroke-miterlimit:4;stroke-dasharray:none;stroke-opacity:1"
             id="rect853"
             width="50.777107"
             height="10.948724"
             x="15.15606"
             y="84.929062" />
        </g>
        <text
           xml:space="preserve"
           style="font-style:normal;font-variant:normal;font-weight:normal;font-stretch:normal;font-size:3.175px;line-height:1.25;font-family:Arial;-inkscape-font-specification:'Arial, Normal';font-variant-ligatures:normal;font-variant-caps:normal;font-variant-numeric:normal;font-feature-settings:normal;text-align:start;letter-spacing:0px;word-spacing:0px;writing-mode:lr-tb;text-anchor:start;fill:#000000;fill-opacity:1;stroke:none;stroke-width:0.265;stroke-miterlimit:4;stroke-dasharray:none"
           x="31.539989"
           y="91.863281"
           id="text857"><tspan
             sodipodi:role="line"
             id="tspan855"
             x="31.539989"
             y="91.863281"
             style="font-style:normal;font-variant:normal;font-weight:bold;font-stretch:normal;font-size:5.29167px;font-family:sans-serif;-inkscape-font-specification:'sans-serif, Bold';font-variant-ligatures:normal;font-variant-caps:normal;font-variant-numeric:normal;font-variant-east-asian:normal;stroke-width:0.265;stroke-miterlimit:4;stroke-dasharray:none">chimp</tspan></text>
        <text
           xml:space="preserve"
           style="font-style:normal;font-variant:normal;font-weight:normal;font-stretch:normal;font-size:3.175px;line-height:1.25;font-family:Arial;-inkscape-font-specification:'Arial, Normal';font-variant-ligatures:normal;font-variant-caps:normal;font-variant-numeric:normal;font-feature-settings:normal;text-align:start;letter-spacing:0px;word-spacing:0px;writing-mode:lr-tb;text-anchor:start;fill:#a0b3ff;fill-opacity:1;stroke:#000000;stroke-width:0.065;stroke-miterlimit:4;stroke-dasharray:none;stroke-opacity:1"
           x="31.65584"
           y="107.6516"
           id="text857-8"><tspan
             sodipodi:role="line"
             id="tspan855-9"
             x="31.65584"
             y="107.6516"
             style="font-style:italic;font-variant:normal;font-weight:normal;font-stretch:normal;font-size:5.29167px;font-family:sans-serif;-inkscape-font-specification:'sans-serif, Italic';font-variant-ligatures:normal;font-variant-caps:normal;font-variant-numeric:normal;font-variant-east-asian:normal;fill:#a0b3ff;fill-opacity:1;stroke:#000000;stroke-width:0.065;stroke-miterlimit:4;stroke-dasharray:none;stroke-opacity:1">chimp</tspan></text>
      </g>
      <g
         id="g1162"
         transform="matrix(0.73196195,0,0,0.73196195,3.460718,31.458765)">
        <g
           id="g885-8"
           transform="translate(55.518057,-0.16456391)">
          <rect
             style="fill:#ffffff;stroke:#000000;stroke-width:0.56195;stroke-linejoin:bevel;stroke-miterlimit:4;stroke-dasharray:none;stroke-opacity:1"
             id="rect851-6"
             width="50.593975"
             height="32.210537"
             x="15.187037"
             y="84.960037"
             ry="6.1737423"
             rx="5.0169058" />
          <rect
             style="fill:#dbb36a;fill-opacity:1;stroke:#000000;stroke-width:0.499999;stroke-linejoin:bevel;stroke-miterlimit:4;stroke-dasharray:none;stroke-opacity:1"
             id="rect853-8"
             width="50.777107"
             height="10.948724"
             x="15.15606"
             y="84.929062" />
        </g>
        <text
           xml:space="preserve"
           style="font-style:normal;font-variant:normal;font-weight:normal;font-stretch:normal;font-size:3.175px;line-height:1.25;font-family:Arial;-inkscape-font-specification:'Arial, Normal';font-variant-ligatures:normal;font-variant-caps:normal;font-variant-numeric:normal;font-feature-settings:normal;text-align:start;letter-spacing:0px;word-spacing:0px;writing-mode:lr-tb;text-anchor:start;fill:#000000;fill-opacity:1;stroke:none;stroke-width:0.265;stroke-miterlimit:4;stroke-dasharray:none"
           x="86.629135"
           y="91.698715"
           id="text857-3"><tspan
             sodipodi:role="line"
             id="tspan855-8"
             x="86.629135"
             y="91.698715"
             style="font-style:normal;font-variant:normal;font-weight:bold;font-stretch:normal;font-size:5.29167px;font-family:sans-serif;-inkscape-font-specification:'sans-serif, Bold';font-variant-ligatures:normal;font-variant-caps:normal;font-variant-numeric:normal;font-variant-east-asian:normal;stroke-width:0.265;stroke-miterlimit:4;stroke-dasharray:none">gorilla</tspan></text>
        <text
           xml:space="preserve"
           style="font-style:normal;font-variant:normal;font-weight:normal;font-stretch:normal;font-size:3.175px;line-height:1.25;font-family:Arial;-inkscape-font-specification:'Arial, Normal';font-variant-ligatures:normal;font-variant-caps:normal;font-variant-numeric:normal;font-feature-settings:normal;text-align:start;letter-spacing:0px;word-spacing:0px;writing-mode:lr-tb;text-anchor:start;fill:#dbb36a;fill-opacity:1;stroke:#000000;stroke-width:0.065;stroke-miterlimit:4;stroke-dasharray:none;stroke-opacity:1"
           x="87.939133"
           y="107.6516"
           id="text857-8-3"><tspan
             sodipodi:role="line"
             id="tspan855-9-3"
             x="87.939133"
             y="107.6516"
             style="font-style:italic;font-variant:normal;font-weight:normal;font-stretch:normal;font-size:5.29167px;font-family:sans-serif;-inkscape-font-specification:'sans-serif, Italic';font-variant-ligatures:normal;font-variant-caps:normal;font-variant-numeric:normal;font-variant-east-asian:normal;fill:#dbb36a;fill-opacity:1;stroke:#000000;stroke-width:0.065;stroke-miterlimit:4;stroke-dasharray:none;stroke-opacity:1">gorilla</tspan></text>
      </g>
      <g
         id="g1171"
         transform="matrix(0.73196195,0,0,0.73196195,3.529811,31.458765)">
        <g
           id="g885-8-0"
           transform="translate(110.21125,-0.10786631)">
          <rect
             style="fill:#ffffff;stroke:#000000;stroke-width:0.560227;stroke-linejoin:bevel;stroke-miterlimit:4;stroke-dasharray:none;stroke-opacity:1"
             id="rect851-6-3"
             width="50.595699"
             height="32.012199"
             x="15.186175"
             y="84.959175"
             ry="6.1357269"
             rx="5.017077" />
          <rect
             style="fill:#f86d71;fill-opacity:1;stroke:#000000;stroke-width:0.499999;stroke-linejoin:bevel;stroke-miterlimit:4;stroke-dasharray:none;stroke-opacity:1"
             id="rect853-8-3"
             width="50.777107"
             height="10.948724"
             x="15.15606"
             y="84.929062" />
        </g>
        <text
           xml:space="preserve"
           style="font-style:normal;font-variant:normal;font-weight:normal;font-stretch:normal;font-size:3.175px;line-height:1.25;font-family:Arial;-inkscape-font-specification:'Arial, Normal';font-variant-ligatures:normal;font-variant-caps:normal;font-variant-numeric:normal;font-feature-settings:normal;text-align:start;letter-spacing:0px;word-spacing:0px;writing-mode:lr-tb;text-anchor:start;fill:#000000;fill-opacity:1;stroke:none;stroke-width:0.265;stroke-miterlimit:4;stroke-dasharray:none"
           x="143.57155"
           y="91.755402"
           id="text857-3-3"><tspan
             sodipodi:role="line"
             id="tspan855-8-7"
             x="143.57155"
             y="91.755402"
             style="font-style:normal;font-variant:normal;font-weight:bold;font-stretch:normal;font-size:5.29167px;font-family:sans-serif;-inkscape-font-specification:'sans-serif, Bold';font-variant-ligatures:normal;font-variant-caps:normal;font-variant-numeric:normal;font-variant-east-asian:normal;stroke-width:0.265;stroke-miterlimit:4;stroke-dasharray:none">alien</tspan></text>
        <text
           xml:space="preserve"
           style="font-style:normal;font-variant:normal;font-weight:normal;font-stretch:normal;font-size:3.175px;line-height:1.25;font-family:Arial;-inkscape-font-specification:'Arial, Normal';font-variant-ligatures:normal;font-variant-caps:normal;font-variant-numeric:normal;font-feature-settings:normal;text-align:start;letter-spacing:0px;word-spacing:0px;writing-mode:lr-tb;text-anchor:start;fill:#f86d71;fill-opacity:1;stroke:#000000;stroke-width:0.065;stroke-miterlimit:4;stroke-dasharray:none;stroke-opacity:1"
           x="144.43066"
           y="108.16449"
           id="text857-8-3-3"><tspan
             sodipodi:role="line"
             id="tspan855-9-3-2"
             x="144.43066"
             y="108.16449"
             style="font-style:italic;font-variant:normal;font-weight:normal;font-stretch:normal;font-size:5.29167px;font-family:sans-serif;-inkscape-font-specification:'sans-serif, Italic';font-variant-ligatures:normal;font-variant-caps:normal;font-variant-numeric:normal;font-variant-east-asian:normal;fill:#f86d71;fill-opacity:1;stroke:#000000;stroke-width:0.065;stroke-miterlimit:4;stroke-dasharray:none;stroke-opacity:1">alien</tspan></text>
      </g>
      <g
         id="g1183"
         transform="matrix(0.73196195,0,0,0.73196195,3.9953914,31.458765)">
        <g
           id="g885-8-0-6"
           transform="translate(164.36277,-0.08475911)">
          <rect
             style="fill:#ffffff;stroke:#000000;stroke-width:0.56195;stroke-linejoin:bevel;stroke-miterlimit:4;stroke-dasharray:none;stroke-opacity:1"
             id="rect851-6-3-5"
             width="50.593975"
             height="32.210537"
             x="15.187037"
             y="84.960037"
             ry="6.1737423"
             rx="5.0169058" />
          <rect
             style="fill:url(#linearGradient1041);fill-opacity:1;stroke:#000000;stroke-width:0.499999;stroke-linejoin:bevel;stroke-miterlimit:4;stroke-dasharray:none;stroke-opacity:1"
             id="rect853-8-3-2"
             width="50.777107"
             height="10.948724"
             x="15.15606"
             y="84.929062" />
        </g>
        <text
           xml:space="preserve"
           style="font-style:normal;font-variant:normal;font-weight:normal;font-stretch:normal;font-size:3.175px;line-height:1.25;font-family:Arial;-inkscape-font-specification:'Arial, Normal';font-variant-ligatures:normal;font-variant-caps:normal;font-variant-numeric:normal;font-feature-settings:normal;text-align:start;letter-spacing:0px;word-spacing:0px;writing-mode:lr-tb;text-anchor:start;fill:#000000;fill-opacity:1;stroke:none;stroke-width:0.265;stroke-miterlimit:4;stroke-dasharray:none"
           x="199.44777"
           y="91.778503"
           id="text857-3-3-6"><tspan
             sodipodi:role="line"
             id="tspan855-8-7-5"
             x="199.44777"
             y="91.778503"
             style="font-style:normal;font-variant:normal;font-weight:bold;font-stretch:normal;font-size:5.29167px;font-family:sans-serif;-inkscape-font-specification:'sans-serif, Bold';font-variant-ligatures:normal;font-variant-caps:normal;font-variant-numeric:normal;font-variant-east-asian:normal;stroke-width:0.265;stroke-miterlimit:4;stroke-dasharray:none">ape</tspan></text>
        <g
           id="g1144"
           transform="translate(0,0.35403442)">
          <text
             xml:space="preserve"
             style="font-style:normal;font-variant:normal;font-weight:normal;font-stretch:normal;font-size:3.175px;line-height:1.25;font-family:Arial;-inkscape-font-specification:'Arial, Normal';font-variant-ligatures:normal;font-variant-caps:normal;font-variant-numeric:normal;font-feature-settings:normal;text-align:start;letter-spacing:0px;word-spacing:0px;writing-mode:lr-tb;text-anchor:start;fill:#a0b3ff;fill-opacity:1;stroke:#000000;stroke-width:0.065;stroke-miterlimit:4;stroke-dasharray:none;stroke-opacity:1"
             x="196.78384"
             y="103.44889"
             id="text857-8-0"><tspan
               sodipodi:role="line"
               id="tspan855-9-4"
               x="196.78384"
               y="103.44889"
               style="font-style:italic;font-variant:normal;font-weight:normal;font-stretch:normal;font-size:5.29167px;font-family:sans-serif;-inkscape-font-specification:'sans-serif, Italic';font-variant-ligatures:normal;font-variant-caps:normal;font-variant-numeric:normal;font-variant-east-asian:normal;fill:#a0b3ff;fill-opacity:1;stroke:#000000;stroke-width:0.065;stroke-miterlimit:4;stroke-dasharray:none;stroke-opacity:1">chimp</tspan></text>
          <text
             xml:space="preserve"
             style="font-style:normal;font-variant:normal;font-weight:normal;font-stretch:normal;font-size:3.175px;line-height:1.25;font-family:Arial;-inkscape-font-specification:'Arial, Normal';font-variant-ligatures:normal;font-variant-caps:normal;font-variant-numeric:normal;font-feature-settings:normal;text-align:start;letter-spacing:0px;word-spacing:0px;writing-mode:lr-tb;text-anchor:start;fill:#dbb36a;fill-opacity:1;stroke:#000000;stroke-width:0.065;stroke-miterlimit:4;stroke-dasharray:none;stroke-opacity:1"
             x="196.78384"
             y="111.14625"
             id="text857-8-3-0"><tspan
               sodipodi:role="line"
               id="tspan855-9-3-4"
               x="196.78384"
               y="111.14625"
               style="font-style:italic;font-variant:normal;font-weight:normal;font-stretch:normal;font-size:5.29167px;font-family:sans-serif;-inkscape-font-specification:'sans-serif, Italic';font-variant-ligatures:normal;font-variant-caps:normal;font-variant-numeric:normal;font-variant-east-asian:normal;fill:#dbb36a;fill-opacity:1;stroke:#000000;stroke-width:0.065;stroke-miterlimit:4;stroke-dasharray:none;stroke-opacity:1">gorilla</tspan></text>
        </g>
      </g>
      <g
         id="g885-8-0-9"
         transform="matrix(0.73196195,0,0,0.73196195,168.67106,31.686239)" />
      <g
         id="g1386"
         transform="translate(-192.61731)">
        <text
           xml:space="preserve"
           style="font-style:italic;font-variant:normal;font-weight:normal;font-stretch:normal;font-size:4.93889px;line-height:1.25;font-family:Arial;-inkscape-font-specification:'Arial, Italic';font-variant-ligatures:normal;font-variant-caps:normal;font-variant-numeric:normal;font-variant-east-asian:normal;text-align:start;letter-spacing:0px;word-spacing:0px;writing-mode:lr-tb;text-anchor:start;fill:#000000;fill-opacity:1;stroke:none;stroke-width:0.0475775;stroke-miterlimit:4;stroke-dasharray:none;stroke-opacity:1"
           x="189.00014"
           y="110.86192"
           id="text857-8-3-3-1"><tspan
             sodipodi:role="line"
             id="tspan1349"
             x="189.00014"
             y="110.86192">User</tspan></text>
        <text
           xml:space="preserve"
           style="font-style:normal;font-variant:normal;font-weight:bold;font-stretch:normal;font-size:4.93889px;line-height:1.25;font-family:Arial;-inkscape-font-specification:'Arial, Bold';font-variant-ligatures:normal;font-variant-caps:normal;font-variant-numeric:normal;font-variant-east-asian:normal;text-align:start;letter-spacing:0px;word-spacing:0px;writing-mode:lr-tb;text-anchor:start;fill:#000000;fill-opacity:1;stroke:none;stroke-width:0.0475775;stroke-miterlimit:4;stroke-dasharray:none;stroke-opacity:1"
           x="187.07449"
           y="99.167152"
           id="text857-8-3-3-1-5"><tspan
             sodipodi:role="line"
             id="tspan1375"
             x="187.07449"
             y="99.167152">Group</tspan></text>
        <path
           style="fill:none;stroke:#000000;stroke-width:0.365;stroke-linecap:butt;stroke-linejoin:miter;stroke-miterlimit:4;stroke-dasharray:none;stroke-opacity:1"
           d="m 183.96971,101.57561 h 22.12697"
           id="path1377"
           sodipodi:nodetypes="cc" />
      </g>
      <circle
         id="path1379"
         style="fill:#000000;stroke:none;stroke-width:0.264583"
         cx="172.56325"
         cy="101.57561"
         r="0.39687499" />
    </g>
  </g>
</svg>
